[gd_scene load_steps=6 format=2]

[ext_resource path="res://characters/base/Fighter.gd" type="Script" id=1]
[ext_resource path="res://characters/base/Weapon.gd" type="Script" id=2]
[ext_resource path="res://characters/base/Armor.gd" type="Script" id=3]
[ext_resource path="res://characters/base/Battery.gd" type="Script" id=4]
[ext_resource path="res://characters/base/CPU.gd" type="Script" id=5]

[node name="Fighter" type="Node"]
script = ExtResource( 1 )

[node name="Weapon" type="Node" parent="."]
script = ExtResource( 2 )
weapon_name = "Heavy Gun"
damage = 20.0
cooldown = 4.0
energy_usage = 10.0
max_integrity = 30.0

[node name="Weapon2" type="Node" parent="."]
script = ExtResource( 2 )
weapon_name = "Rapid Punch"
damage = 5.0
cooldown = 1.0
energy_usage = 3.0
max_integrity = 20.0

[node name="Armor" type="Node" parent="."]
script = ExtResource( 3 )
defence = 0.25
recovery = 5.0
energy_usage = 5.0

[node name="Battery" type="Node" parent="."]
script = ExtResource( 4 )
max_energy = 300.0
current_energy = 300.0
factor_multiplier = 0.003

[node name="CPU" type="Node" parent="."]
script = ExtResource( 5 )
max_activity = 150.0
cooldown_damage_factor = 0.1
initial_cooldown = 3.0

